{
  "CBOX":
  {
    "TITLE": "Miniaml starring value",
    "VALUES": ["0", "1", "2", "3", "4", "5", "6", "7", "8", "9", "10"],
    "DEFAULT": "8"
  },
  "PATH":
  {
    "TITLE": "Configuration file to use (RC file)",
    "DEFAULT": null
  }
}
